^C:\USERS\KURONEKO\DESKTOP\PROYECT\JUEGOVERSIONADO2\TRABAJANDOCONLIBRERIAS\FEO\BEATLE.CPP
/c /I"C:\USERS\KURONEKO\DESKTOP\PROYECT\JUEGOVERSIONADO2\TRABAJANDOCONLIBRERIAS\SFML-2.4.2\INCLUDE" /Zi /nologo /W3 /WX- /sdl /O2 /Oi /Oy- /GL /D SFML_STATIC /D RELEASE /D _MBCS /D _MBCS /Gm- /EHsc /MD /GS /Gy /fp:precise /Zc:wchar_t /Zc:forScope /Zc:inline /Fo"RELEASE\\" /Fd"RELEASE\VC140.PDB" /Gd /TP /analyze- C:\USERS\KURONEKO\DESKTOP\PROYECT\JUEGOVERSIONADO2\TRABAJANDOCONLIBRERIAS\FEO\BEATLE.CPP
^C:\USERS\KURONEKO\DESKTOP\PROYECT\JUEGOVERSIONADO2\TRABAJANDOCONLIBRERIAS\FEO\ENEMYBASE.CPP
/c /I"C:\USERS\KURONEKO\DESKTOP\PROYECT\JUEGOVERSIONADO2\TRABAJANDOCONLIBRERIAS\SFML-2.4.2\INCLUDE" /Zi /nologo /W3 /WX- /sdl /O2 /Oi /Oy- /GL /D SFML_STATIC /D RELEASE /D _MBCS /D _MBCS /Gm- /EHsc /MD /GS /Gy /fp:precise /Zc:wchar_t /Zc:forScope /Zc:inline /Fo"RELEASE\\" /Fd"RELEASE\VC140.PDB" /Gd /TP /analyze- C:\USERS\KURONEKO\DESKTOP\PROYECT\JUEGOVERSIONADO2\TRABAJANDOCONLIBRERIAS\FEO\ENEMYBASE.CPP
^C:\USERS\KURONEKO\DESKTOP\PROYECT\JUEGOVERSIONADO2\TRABAJANDOCONLIBRERIAS\FEO\GAME.CPP
/c /I"C:\USERS\KURONEKO\DESKTOP\PROYECT\JUEGOVERSIONADO2\TRABAJANDOCONLIBRERIAS\SFML-2.4.2\INCLUDE" /Zi /nologo /W3 /WX- /sdl /O2 /Oi /Oy- /GL /D SFML_STATIC /D RELEASE /D _MBCS /D _MBCS /Gm- /EHsc /MD /GS /Gy /fp:precise /Zc:wchar_t /Zc:forScope /Zc:inline /Fo"RELEASE\\" /Fd"RELEASE\VC140.PDB" /Gd /TP /analyze- C:\USERS\KURONEKO\DESKTOP\PROYECT\JUEGOVERSIONADO2\TRABAJANDOCONLIBRERIAS\FEO\GAME.CPP
^C:\USERS\KURONEKO\DESKTOP\PROYECT\JUEGOVERSIONADO2\TRABAJANDOCONLIBRERIAS\FEO\MAIN.CPP
/c /I"C:\USERS\KURONEKO\DESKTOP\PROYECT\JUEGOVERSIONADO2\TRABAJANDOCONLIBRERIAS\SFML-2.4.2\INCLUDE" /Zi /nologo /W3 /WX- /sdl /O2 /Oi /Oy- /GL /D SFML_STATIC /D RELEASE /D _MBCS /D _MBCS /Gm- /EHsc /MD /GS /Gy /fp:precise /Zc:wchar_t /Zc:forScope /Zc:inline /Fo"RELEASE\\" /Fd"RELEASE\VC140.PDB" /Gd /TP /analyze- C:\USERS\KURONEKO\DESKTOP\PROYECT\JUEGOVERSIONADO2\TRABAJANDOCONLIBRERIAS\FEO\MAIN.CPP
^C:\USERS\KURONEKO\DESKTOP\PROYECT\JUEGOVERSIONADO2\TRABAJANDOCONLIBRERIAS\FEO\PLAYERP.CPP
/c /I"C:\USERS\KURONEKO\DESKTOP\PROYECT\JUEGOVERSIONADO2\TRABAJANDOCONLIBRERIAS\SFML-2.4.2\INCLUDE" /Zi /nologo /W3 /WX- /sdl /O2 /Oi /Oy- /GL /D SFML_STATIC /D RELEASE /D _MBCS /D _MBCS /Gm- /EHsc /MD /GS /Gy /fp:precise /Zc:wchar_t /Zc:forScope /Zc:inline /Fo"RELEASE\\" /Fd"RELEASE\VC140.PDB" /Gd /TP /analyze- C:\USERS\KURONEKO\DESKTOP\PROYECT\JUEGOVERSIONADO2\TRABAJANDOCONLIBRERIAS\FEO\PLAYERP.CPP
^C:\USERS\KURONEKO\DESKTOP\PROYECT\JUEGOVERSIONADO2\TRABAJANDOCONLIBRERIAS\FEO\RADROACH.CPP
/c /I"C:\USERS\KURONEKO\DESKTOP\PROYECT\JUEGOVERSIONADO2\TRABAJANDOCONLIBRERIAS\SFML-2.4.2\INCLUDE" /Zi /nologo /W3 /WX- /sdl /O2 /Oi /Oy- /GL /D SFML_STATIC /D RELEASE /D _MBCS /D _MBCS /Gm- /EHsc /MD /GS /Gy /fp:precise /Zc:wchar_t /Zc:forScope /Zc:inline /Fo"RELEASE\\" /Fd"RELEASE\VC140.PDB" /Gd /TP /analyze- C:\USERS\KURONEKO\DESKTOP\PROYECT\JUEGOVERSIONADO2\TRABAJANDOCONLIBRERIAS\FEO\RADROACH.CPP
^C:\USERS\KURONEKO\DESKTOP\PROYECT\JUEGOVERSIONADO2\TRABAJANDOCONLIBRERIAS\FEO\ROCK.CPP
/c /I"C:\USERS\KURONEKO\DESKTOP\PROYECT\JUEGOVERSIONADO2\TRABAJANDOCONLIBRERIAS\SFML-2.4.2\INCLUDE" /Zi /nologo /W3 /WX- /sdl /O2 /Oi /Oy- /GL /D SFML_STATIC /D RELEASE /D _MBCS /D _MBCS /Gm- /EHsc /MD /GS /Gy /fp:precise /Zc:wchar_t /Zc:forScope /Zc:inline /Fo"RELEASE\\" /Fd"RELEASE\VC140.PDB" /Gd /TP /analyze- C:\USERS\KURONEKO\DESKTOP\PROYECT\JUEGOVERSIONADO2\TRABAJANDOCONLIBRERIAS\FEO\ROCK.CPP
^C:\USERS\KURONEKO\DESKTOP\PROYECT\JUEGOVERSIONADO2\LIBRERIASGAME\FEO\ENEMYBASE.CPP
/c /I"C:\USERS\KURONEKO\DESKTOP\PROYECT\JUEGOVERSIONADO2\LIBRERIASGAME\SFML-2.4.2\INCLUDE" /Zi /nologo /W3 /WX- /sdl /O2 /Oi /Oy- /GL /D SFML_STATIC /D RELEASE /D _MBCS /D _MBCS /Gm- /EHsc /MD /GS /Gy /fp:precise /Zc:wchar_t /Zc:forScope /Zc:inline /Fo"RELEASE\\" /Fd"RELEASE\VC140.PDB" /Gd /TP /analyze- C:\USERS\KURONEKO\DESKTOP\PROYECT\JUEGOVERSIONADO2\LIBRERIASGAME\FEO\ENEMYBASE.CPP
^C:\USERS\KURONEKO\DESKTOP\PROYECT\JUEGOVERSIONADO2\LIBRERIASGAME\FEO\PLAYERP.CPP
/c /I"C:\USERS\KURONEKO\DESKTOP\PROYECT\JUEGOVERSIONADO2\LIBRERIASGAME\SFML-2.4.2\INCLUDE" /Zi /nologo /W3 /WX- /sdl /O2 /Oi /Oy- /GL /D SFML_STATIC /D RELEASE /D _MBCS /D _MBCS /Gm- /EHsc /MD /GS /Gy /fp:precise /Zc:wchar_t /Zc:forScope /Zc:inline /Fo"RELEASE\\" /Fd"RELEASE\VC140.PDB" /Gd /TP /analyze- C:\USERS\KURONEKO\DESKTOP\PROYECT\JUEGOVERSIONADO2\LIBRERIASGAME\FEO\PLAYERP.CPP
^C:\USERS\KURONEKO\DESKTOP\PROYECT\JUEGOVERSIONADO2\LIBRERIASGAME\FEO\WEB.CPP
/c /I"C:\USERS\KURONEKO\DESKTOP\PROYECT\JUEGOVERSIONADO2\LIBRERIASGAME\SFML-2.4.2\INCLUDE" /Zi /nologo /W3 /WX- /sdl /O2 /Oi /Oy- /GL /D SFML_STATIC /D RELEASE /D _MBCS /D _MBCS /Gm- /EHsc /MD /GS /Gy /fp:precise /Zc:wchar_t /Zc:forScope /Zc:inline /Fo"RELEASE\\" /Fd"RELEASE\VC140.PDB" /Gd /TP /analyze- C:\USERS\KURONEKO\DESKTOP\PROYECT\JUEGOVERSIONADO2\LIBRERIASGAME\FEO\WEB.CPP
^C:\USERS\KURONEKO\DESKTOP\PROYECT\JUEGOVERSIONADO2\LIBRERIASGAME\FEO\BUG.CPP
/c /I"C:\USERS\KURONEKO\DESKTOP\PROYECT\JUEGOVERSIONADO2\LIBRERIASGAME\SFML-2.4.2\INCLUDE" /Zi /nologo /W3 /WX- /sdl /O2 /Oi /Oy- /GL /D SFML_STATIC /D RELEASE /D _MBCS /D _MBCS /Gm- /EHsc /MD /GS /Gy /fp:precise /Zc:wchar_t /Zc:forScope /Zc:inline /Fo"RELEASE\\" /Fd"RELEASE\VC140.PDB" /Gd /TP /analyze- C:\USERS\KURONEKO\DESKTOP\PROYECT\JUEGOVERSIONADO2\LIBRERIASGAME\FEO\BUG.CPP
^C:\USERS\KURONEKO\DESKTOP\PROYECT\JUEGOVERSIONADO2\LIBRERIASGAME\FEO\CHARACTER.CPP
/c /I"C:\USERS\KURONEKO\DESKTOP\PROYECT\JUEGOVERSIONADO2\LIBRERIASGAME\SFML-2.4.2\INCLUDE" /Zi /nologo /W3 /WX- /sdl /O2 /Oi /Oy- /GL /D SFML_STATIC /D RELEASE /D _MBCS /D _MBCS /Gm- /EHsc /MD /GS /Gy /fp:precise /Zc:wchar_t /Zc:forScope /Zc:inline /Fo"RELEASE\\" /Fd"RELEASE\VC140.PDB" /Gd /TP /analyze- C:\USERS\KURONEKO\DESKTOP\PROYECT\JUEGOVERSIONADO2\LIBRERIASGAME\FEO\CHARACTER.CPP
^C:\USERS\KURONEKO\DESKTOP\PROYECT\JUEGOVERSIONADO2\LIBRERIASGAME\FEO\COMBAT.CPP
/c /I"C:\USERS\KURONEKO\DESKTOP\PROYECT\JUEGOVERSIONADO2\LIBRERIASGAME\SFML-2.4.2\INCLUDE" /Zi /nologo /W3 /WX- /sdl /O2 /Oi /Oy- /GL /D SFML_STATIC /D RELEASE /D _MBCS /D _MBCS /Gm- /EHsc /MD /GS /Gy /fp:precise /Zc:wchar_t /Zc:forScope /Zc:inline /Fo"RELEASE\\" /Fd"RELEASE\VC140.PDB" /Gd /TP /analyze- C:\USERS\KURONEKO\DESKTOP\PROYECT\JUEGOVERSIONADO2\LIBRERIASGAME\FEO\COMBAT.CPP
^C:\USERS\KURONEKO\DESKTOP\PROYECT\JUEGOVERSIONADO2\LIBRERIASGAME\FEO\WASP.CPP
/c /I"C:\USERS\KURONEKO\DESKTOP\PROYECT\JUEGOVERSIONADO2\LIBRERIASGAME\SFML-2.4.2\INCLUDE" /Zi /nologo /W3 /WX- /sdl /O2 /Oi /Oy- /GL /D SFML_STATIC /D RELEASE /D _MBCS /D _MBCS /Gm- /EHsc /MD /GS /Gy /fp:precise /Zc:wchar_t /Zc:forScope /Zc:inline /Fo"RELEASE\\" /Fd"RELEASE\VC140.PDB" /Gd /TP /analyze- C:\USERS\KURONEKO\DESKTOP\PROYECT\JUEGOVERSIONADO2\LIBRERIASGAME\FEO\WASP.CPP
^C:\USERS\KURONEKO\DESKTOP\PROYECT\JUEGOVERSIONADO2\LIBRERIASGAME\FEO\GAME.CPP
/c /I"C:\USERS\KURONEKO\DESKTOP\PROYECT\JUEGOVERSIONADO2\LIBRERIASGAME\SFML-2.4.2\INCLUDE" /Zi /nologo /W3 /WX- /sdl /O2 /Oi /Oy- /GL /D SFML_STATIC /D RELEASE /D _MBCS /D _MBCS /Gm- /EHsc /MD /GS /Gy /fp:precise /Zc:wchar_t /Zc:forScope /Zc:inline /Fo"RELEASE\\" /Fd"RELEASE\VC140.PDB" /Gd /TP /analyze- C:\USERS\KURONEKO\DESKTOP\PROYECT\JUEGOVERSIONADO2\LIBRERIASGAME\FEO\GAME.CPP
^C:\USERS\KURONEKO\DESKTOP\PROYECT\JUEGOVERSIONADO2\LIBRERIASGAME\FEO\MAIN.CPP
/c /I"C:\USERS\KURONEKO\DESKTOP\PROYECT\JUEGOVERSIONADO2\LIBRERIASGAME\SFML-2.4.2\INCLUDE" /Zi /nologo /W3 /WX- /sdl /O2 /Oi /Oy- /GL /D SFML_STATIC /D RELEASE /D _MBCS /D _MBCS /Gm- /EHsc /MD /GS /Gy /fp:precise /Zc:wchar_t /Zc:forScope /Zc:inline /Fo"RELEASE\\" /Fd"RELEASE\VC140.PDB" /Gd /TP /analyze- C:\USERS\KURONEKO\DESKTOP\PROYECT\JUEGOVERSIONADO2\LIBRERIASGAME\FEO\MAIN.CPP
^C:\USERS\KURONEKO\DESKTOP\LIBRERIASGAME\FEO\BUG.CPP
/c /I"C:\USERS\KURONEKO\DESKTOP\LIBRERIASGAME\SFML-2.4.2\INCLUDE" /Zi /nologo /W3 /WX- /sdl /O2 /Oi /Oy- /GL /D SFML_STATIC /D RELEASE /D _MBCS /D _MBCS /Gm- /EHsc /MD /GS /Gy /fp:precise /Zc:wchar_t /Zc:forScope /Zc:inline /Fo"RELEASE\\" /Fd"RELEASE\VC140.PDB" /Gd /TP /analyze- C:\USERS\KURONEKO\DESKTOP\LIBRERIASGAME\FEO\BUG.CPP
^C:\USERS\KURONEKO\DESKTOP\LIBRERIASGAME\FEO\COMBAT.CPP
/c /I"C:\USERS\KURONEKO\DESKTOP\LIBRERIASGAME\SFML-2.4.2\INCLUDE" /Zi /nologo /W3 /WX- /sdl /O2 /Oi /Oy- /GL /D SFML_STATIC /D RELEASE /D _MBCS /D _MBCS /Gm- /EHsc /MD /GS /Gy /fp:precise /Zc:wchar_t /Zc:forScope /Zc:inline /Fo"RELEASE\\" /Fd"RELEASE\VC140.PDB" /Gd /TP /analyze- C:\USERS\KURONEKO\DESKTOP\LIBRERIASGAME\FEO\COMBAT.CPP
^C:\USERS\KURONEKO\DESKTOP\LIBRERIASGAME\FEO\CHARACTER.CPP
/c /I"C:\USERS\KURONEKO\DESKTOP\LIBRERIASGAME\SFML-2.4.2\INCLUDE" /Zi /nologo /W3 /WX- /sdl /O2 /Oi /Oy- /GL /D SFML_STATIC /D RELEASE /D _MBCS /D _MBCS /Gm- /EHsc /MD /GS /Gy /fp:precise /Zc:wchar_t /Zc:forScope /Zc:inline /Fo"RELEASE\\" /Fd"RELEASE\VC140.PDB" /Gd /TP /analyze- C:\USERS\KURONEKO\DESKTOP\LIBRERIASGAME\FEO\CHARACTER.CPP
^C:\USERS\KURONEKO\DESKTOP\LIBRERIASGAME\FEO\WEB.CPP
/c /I"C:\USERS\KURONEKO\DESKTOP\LIBRERIASGAME\SFML-2.4.2\INCLUDE" /Zi /nologo /W3 /WX- /sdl /O2 /Oi /Oy- /GL /D SFML_STATIC /D RELEASE /D _MBCS /D _MBCS /Gm- /EHsc /MD /GS /Gy /fp:precise /Zc:wchar_t /Zc:forScope /Zc:inline /Fo"RELEASE\\" /Fd"RELEASE\VC140.PDB" /Gd /TP /analyze- C:\USERS\KURONEKO\DESKTOP\LIBRERIASGAME\FEO\WEB.CPP
^C:\USERS\KURONEKO\DESKTOP\LIBRERIASGAME\FEO\MAIN.CPP
/c /I"C:\USERS\KURONEKO\DESKTOP\LIBRERIASGAME\SFML-2.4.2\INCLUDE" /Zi /nologo /W3 /WX- /sdl /O2 /Oi /Oy- /GL /D SFML_STATIC /D RELEASE /D _MBCS /D _MBCS /Gm- /EHsc /MD /GS /Gy /fp:precise /Zc:wchar_t /Zc:forScope /Zc:inline /Fo"RELEASE\\" /Fd"RELEASE\VC140.PDB" /Gd /TP /analyze- C:\USERS\KURONEKO\DESKTOP\LIBRERIASGAME\FEO\MAIN.CPP
^C:\USERS\KURONEKO\DESKTOP\LIBRERIASGAME\FEO\WASP.CPP
/c /I"C:\USERS\KURONEKO\DESKTOP\LIBRERIASGAME\SFML-2.4.2\INCLUDE" /Zi /nologo /W3 /WX- /sdl /O2 /Oi /Oy- /GL /D SFML_STATIC /D RELEASE /D _MBCS /D _MBCS /Gm- /EHsc /MD /GS /Gy /fp:precise /Zc:wchar_t /Zc:forScope /Zc:inline /Fo"RELEASE\\" /Fd"RELEASE\VC140.PDB" /Gd /TP /analyze- C:\USERS\KURONEKO\DESKTOP\LIBRERIASGAME\FEO\WASP.CPP
^C:\USERS\KURONEKO\DESKTOP\LIBRERIASGAME\FEO\GAME.CPP
/c /I"C:\USERS\KURONEKO\DESKTOP\LIBRERIASGAME\SFML-2.4.2\INCLUDE" /Zi /nologo /W3 /WX- /sdl /O2 /Oi /Oy- /GL /D SFML_STATIC /D RELEASE /D _MBCS /D _MBCS /Gm- /EHsc /MD /GS /Gy /fp:precise /Zc:wchar_t /Zc:forScope /Zc:inline /Fo"RELEASE\\" /Fd"RELEASE\VC140.PDB" /Gd /TP /analyze- C:\USERS\KURONEKO\DESKTOP\LIBRERIASGAME\FEO\GAME.CPP
